{
    "cinemas": [{
        "id": 17068,
        "mark": 0,
        "nm": "传奇影城（后瑞店）",
        "sellPrice": "33",
        "addr": "宝安区西乡街道后瑞地铁站B出口100处（壹航城购物中心T2栋）",
        "distance": "100m",
        "tag": {
            "allowRefund": 1,
            "buyout": 0,
            "cityCardTag": 0,
            "deal": 0,
            "endorse": 1,
            "hallTypeVOList": [],
            "sell": 1,
            "snack": 0
        },
        "promotion": {}
    }, {
        "id": 15855,
        "mark": 0,
        "nm": "凤凰国际影城",
        "sellPrice": "33",
        "addr": "宝安区西乡街道宝安大道5010号西部硅谷（后瑞地铁站旁）B座1楼",
        "distance": "800m",
        "tag": {
            "allowRefund": 1,
            "buyout": 0,
            "cityCardTag": 0,
            "deal": 0,
            "endorse": 1,
            "hallType": ["杜比全景声厅"],
            "hallTypeVOList": [{
                "name": "杜比全景声厅",
                "url": ""
            }],
            "sell": 1,
            "snack": 1
        },
        "promotion": {}
    }, {
        "id": 15428,
        "mark": 0,
        "nm": "中影UL城市影城（黄田店）",
        "sellPrice": "33",
        "addr": "宝安区西乡街道长园路28号昌宏百货四楼",
        "distance": "1.5km",
        "tag": {
            "allowRefund": 0,
            "buyout": 0,
            "cityCardTag": 0,
            "deal": 0,
            "endorse": 1,
            "hallTypeVOList": [],
            "sell": 1,
            "snack": 1
        },
        "promotion": {}
    }, {
        "id": 27922,
        "mark": 0,
        "nm": "中影南方鹤洲影城",
        "sellPrice": "35",
        "addr": "宝安区航城街道鹤洲社区洲石路与鹤洲四路交汇处润科华府1-123",
        "distance": "3.1km",
        "tag": {
            "allowRefund": 0,
            "buyout": 0,
            "cityCardTag": 0,
            "deal": 0,
            "endorse": 0,
            "hallTypeVOList": [],
            "sell": 1,
            "snack": 0
        },
        "promotion": {}
    }, {
        "id": 16897,
        "mark": 0,
        "nm": "美视国际影城（4K沉浸音）",
        "sellPrice": "33",
        "addr": "宝安区西乡街道前进二路桃源居10区28栋（人人乐超市二楼）",
        "distance": "3.2km",
        "tag": {
            "allowRefund": 1,
            "buyout": 0,
            "cityCardTag": 0,
            "deal": 0,
            "endorse": 1,
            "hallTypeVOList": [],
            "sell": 1,
            "snack": 1,
            "vipTag": "折扣卡"
        },
        "promotion": {
            "cardPromotionTag": "开卡特惠，首单2张最高立减6元"
        }
    }, {
        "id": 25431,
        "mark": 0,
        "nm": "明星国际影城（宝安店）",
        "sellPrice": "39.9",
        "addr": "宝安区西乡街道固戍二路万力华大厦一楼",
        "distance": "3.7km",
        "tag": {
            "allowRefund": 0,
            "buyout": 0,
            "cityCardTag": 0,
            "deal": 0,
            "endorse": 0,
            "hallTypeVOList": [],
            "sell": 1,
            "snack": 1
        },
        "promotion": {}
    }, {
        "id": 13729,
        "mark": 0,
        "nm": "中影德金影院福永店",
        "sellPrice": "27",
        "addr": "宝安区福永街道翠岗公园群艺馆一楼",
        "distance": "3.8km",
        "tag": {
            "allowRefund": 1,
            "buyout": 0,
            "cityCardTag": 0,
            "deal": 0,
            "endorse": 1,
            "hallTypeVOList": [],
            "sell": 1,
            "snack": 1,
            "vipTag": "折扣卡"
        },
        "promotion": {}
    }, {
        "id": 24103,
        "mark": 0,
        "nm": "益田国际影城（福永店）",
        "sellPrice": "38",
        "addr": "宝安区福永街道永泰西路益田假日天地二楼",
        "distance": "4.4km",
        "tag": {
            "allowRefund": 1,
            "buyout": 0,
            "cityCardTag": 0,
            "deal": 0,
            "endorse": 1,
            "hallType": ["杜比全景声厅"],
            "hallTypeVOList": [{
                "name": "杜比全景声厅",
                "url": ""
            }],
            "sell": 1,
            "snack": 1,
            "vipTag": "折扣卡"
        },
        "promotion": {
            "cardPromotionTag": "开卡特惠，首单2张最高立减4元"
        }
    }, {
        "id": 15406,
        "mark": 0,
        "nm": "幕森国际影城",
        "sellPrice": "23",
        "addr": "宝安区福永街道128号怀德村委旁汇隆城5层",
        "distance": "4.4km",
        "tag": {
            "allowRefund": 0,
            "buyout": 0,
            "cityCardTag": 0,
            "deal": 0,
            "endorse": 0,
            "hallTypeVOList": [],
            "sell": 1,
            "snack": 1,
            "vipTag": "折扣卡"
        },
        "promotion": {
            "cardPromotionTag": "开卡特惠，首单2张最高立减6元"
        }
    }, {
        "id": 7555,
        "mark": 0,
        "nm": "嘉乐国际影城（固戍店）",
        "sellPrice": "24",
        "addr": "宝安区西乡固戍村固戍一路置富广场一楼",
        "distance": "4.5km",
        "tag": {
            "allowRefund": 0,
            "buyout": 0,
            "cityCardTag": 0,
            "deal": 0,
            "endorse": 1,
            "hallTypeVOList": [],
            "sell": 1,
            "snack": 1,
            "vipTag": "折扣卡"
        },
        "promotion": {
            "cardPromotionTag": "开卡特惠，首单2张最高立减4元"
        }
    }, {
        "id": 2424,
        "mark": 0,
        "nm": "中影UL城市影院（福永店）",
        "sellPrice": "29",
        "addr": "宝安区福永大道国惠康百货4楼",
        "distance": "4.5km",
        "tag": {
            "allowRefund": 0,
            "buyout": 0,
            "cityCardTag": 0,
            "deal": 0,
            "endorse": 1,
            "hallTypeVOList": [],
            "sell": 1,
            "snack": 1,
            "vipTag": "折扣卡"
        },
        "promotion": {
            "cardPromotionTag": "开卡特惠，首单2张最高立减2元"
        }
    }, {
        "id": 24021,
        "mark": 0,
        "nm": "中影星美明星国际影城（福永康之宝店）",
        "sellPrice": "27",
        "addr": "宝安区福永街道康之宝超级广场三楼",
        "distance": "4.7km",
        "tag": {
            "allowRefund": 0,
            "buyout": 0,
            "cityCardTag": 0,
            "deal": 0,
            "endorse": 1,
            "hallTypeVOList": [],
            "sell": 1,
            "snack": 1,
            "vipTag": "折扣卡"
        },
        "promotion": {
            "cardPromotionTag": "开卡特惠，首单2张最高立减4元"
        }
    }, {
        "id": 15799,
        "mark": 0,
        "nm": "中影德金影城（西乡店）",
        "sellPrice": "46",
        "addr": "宝安区宝民二路和宝民一路交汇处缤纷时代购物中心一楼",
        "distance": "6km",
        "tag": {
            "allowRefund": 1,
            "buyout": 0,
            "cityCardTag": 0,
            "deal": 0,
            "endorse": 1,
            "hallTypeVOList": [],
            "sell": 1,
            "snack": 1,
            "vipTag": "折扣卡"
        },
        "promotion": {}
    }, {
        "id": 2623,
        "mark": 0,
        "nm": "新华银兴国际影城",
        "sellPrice": "23",
        "addr": "宝安区西乡宝安大道与金海路交汇处金港华庭一栋三层（西乡客运站对面）",
        "distance": "6.1km",
        "tag": {
            "allowRefund": 0,
            "buyout": 0,
            "cityCardTag": 0,
            "deal": 0,
            "endorse": 1,
            "hallTypeVOList": [],
            "sell": 1,
            "snack": 1,
            "vipTag": "折扣卡"
        },
        "promotion": {
            "cardPromotionTag": "开卡特惠，首单2张最高立减4元"
        }
    }, {
        "id": 23768,
        "mark": 0,
        "nm": "太平洋影城（深圳同泰时代广场店）",
        "sellPrice": "37.9",
        "addr": "宝安区福永街道同泰时代广场4层",
        "distance": "6.1km",
        "tag": {
            "allowRefund": 1,
            "buyout": 0,
            "cityCardTag": 0,
            "deal": 0,
            "endorse": 1,
            "hallType": ["CGS中国巨幕厅", "杜比全景声厅"],
            "hallTypeVOList": [{
                "name": "CGS中国巨幕厅",
                "url": ""
            }, {
                "name": "杜比全景声厅",
                "url": ""
            }],
            "sell": 1,
            "snack": 1,
            "vipTag": "折扣卡"
        },
        "promotion": {}
    }, {
        "id": 16188,
        "mark": 0,
        "nm": "中影UL城市巨幕影城（万荟城店）",
        "sellPrice": "43",
        "addr": "宝安区西乡街道宝田一路中熙香缤山九栋商业广场四楼",
        "distance": "6.3km",
        "tag": {
            "allowRefund": 1,
            "buyout": 0,
            "cityCardTag": 0,
            "deal": 0,
            "endorse": 1,
            "hallTypeVOList": [],
            "sell": 1,
            "snack": 1,
            "vipTag": "折扣卡"
        },
        "promotion": {
            "cardPromotionTag": "开卡特惠，首单2张最高立减4元"
        }
    }, {
        "id": 16901,
        "mark": 0,
        "nm": "环球国际影城（福永凤凰山店）",
        "sellPrice": "28",
        "addr": "宝安区福永街道凤凰社区凤凰御林山景F3-03",
        "distance": "6.4km",
        "tag": {
            "allowRefund": 1,
            "buyout": 0,
            "cityCardTag": 0,
            "deal": 0,
            "endorse": 1,
            "hallTypeVOList": [],
            "sell": 1,
            "snack": 1,
            "vipTag": "折扣卡"
        },
        "promotion": {
            "cardPromotionTag": "开卡特惠，首单2张最高立减6元"
        }
    }, {
        "id": 13055,
        "mark": 0,
        "nm": "云幕国际影城（西乡店）",
        "sellPrice": "23",
        "addr": "宝安区西乡大道与工业路交口大益广场对面共乐城购物中心四楼（大益广场对面）",
        "distance": "6.6km",
        "tag": {
            "allowRefund": 1,
            "buyout": 0,
            "cityCardTag": 0,
            "deal": 0,
            "endorse": 1,
            "hallTypeVOList": [],
            "sell": 1,
            "snack": 1,
            "vipTag": "折扣卡"
        },
        "promotion": {
            "cardPromotionTag": "开卡特惠，首单2张最高立减4元"
        }
    }, {
        "id": 27340,
        "mark": 0,
        "nm": "万都国际影城（宝安店）",
        "sellPrice": "35",
        "addr": "宝安区西乡金海路松茂御龙湾同学都荟负一层（碧海湾站A出口）",
        "distance": "6.7km",
        "tag": {
            "allowRefund": 0,
            "buyout": 0,
            "cityCardTag": 0,
            "deal": 0,
            "endorse": 0,
            "hallType": ["杜比全景声厅", "60帧厅"],
            "hallTypeVOList": [{
                "name": "杜比全景声厅",
                "url": ""
            }, {
                "name": "60帧厅",
                "url": ""
            }],
            "sell": 1,
            "snack": 1,
            "vipTag": "折扣卡"
        },
        "promotion": {}
    }, {
        "id": 15170,
        "mark": 0,
        "nm": "中影100都市影城（彩虹城店）",
        "sellPrice": "43",
        "addr": "宝安区前进二路93号彩虹城5楼",
        "distance": "6.8km",
        "tag": {
            "allowRefund": 1,
            "buyout": 0,
            "cityCardTag": 0,
            "deal": 0,
            "endorse": 1,
            "hallTypeVOList": [],
            "sell": 1,
            "snack": 1,
            "vipTag": "折扣卡"
        },
        "promotion": {}
    }],
    "ct_pois": [{
        "ct_poi": "936879945111165696_a17068_c0",
        "poiid": 151120064
    }, {
        "ct_poi": "936879945111165696_a15855_c1",
        "poiid": 98086262
    }, {
        "ct_poi": "936879945111165696_a15428_c2",
        "poiid": 98499999
    }, {
        "ct_poi": "936879945111165696_a27922_c3",
        "poiid": 793268033
    }, {
        "ct_poi": "936879945111165696_a16897_c4",
        "poiid": 150537408
    }, {
        "ct_poi": "936879945111165696_a25431_c5",
        "poiid": 177845156
    }, {
        "ct_poi": "936879945111165696_a13729_c6",
        "poiid": 65175837
    }, {
        "ct_poi": "936879945111165696_a24103_c7",
        "poiid": 162906478
    }, {
        "ct_poi": "936879945111165696_a15406_c8",
        "poiid": 92227348
    }, {
        "ct_poi": "936879945111165696_a7555_c9",
        "poiid": 6083546
    }, {
        "ct_poi": "936879945111165696_a2424_c10",
        "poiid": 1542497
    }, {
        "ct_poi": "936879945111165696_a24021_c11",
        "poiid": 161944006
    }, {
        "ct_poi": "936879945111165696_a15799_c12",
        "poiid": 94057673
    }, {
        "ct_poi": "936879945111165696_a2623_c13",
        "poiid": 1566025
    }, {
        "ct_poi": "936879945111165696_a23768_c14",
        "poiid": 159468928
    }, {
        "ct_poi": "936879945111165696_a16188_c15",
        "poiid": 105113749
    }, {
        "ct_poi": "936879945111165696_a16901_c16",
        "poiid": 150460186
    }, {
        "ct_poi": "936879945111165696_a13055_c17",
        "poiid": 42677991
    }, {
        "ct_poi": "936879945111165696_a27340_c18",
        "poiid": 194544991
    }, {
        "ct_poi": "936879945111165696_a15170_c19",
        "poiid": 74950937
    }],
    "paging": {
        "hasMore": true,
        "limit": 20,
        "offset": 0,
        "total": 303
    },
    "resId": "1573551687499"
}